{
  "level": "0",
  "auth": true,
  "directions": [
	{
	  "id": "1",
	  "name": "\u041a\u0443\u0445\u043d\u0438",
	  "subdomain": "kitchen",
	  "color": "#8b0e3d"
	},
	{
	  "id": "2",
	  "name": "\u041f\u0435\u043a\u0430\u0440\u043d\u0438",
	  "subdomain": "bakery",
	  "color": "#d5a25a"
	},
	{
	  "id": "3",
	  "name": "\u041e\u0442\u0435\u043b\u0438",
	  "subdomain": "hotel",
	  "color": "#735586"
	},
	{
	  "id": "4",
	  "name": "\u0420\u0438\u0442\u0435\u0439\u043b",
	  "subdomain": "retail",
	  "color": "#f5d20f"
	},
	{
	  "id": "5",
	  "name": "\u041a\u0430\u043c\u0431\u0443\u0437\u044b",
	  "subdomain": "flot",
	  "color": "#42b3cc"
	}
  ],
  "auth_info": {
	"id": "1",
	"login": "tfdecor",
	"password": "123456",
	"email": "info@tfdecor.ru",
	"description": "\u0410\u0434\u043c\u0438\u043d\u0438\u0441\u0442\u0440\u0430\u0442\u043e\u0440",
	"level": "0"
  },
  "statistic": {
	"news": {
	  "count": 3,
	  "publish": 3
	},
	"projects": [
	  {
		"direction": 1,
		"count": 1,
		"publish": 1
	  },
	  {
		"direction": 2,
		"count": 0,
		"publish": 0
	  },
	  {
		"direction": 3,
		"count": 1,
		"publish": 1
	  },
	  {
		"direction": 4,
		"count": 1,
		"publish": 1
	  },
	  {
		"direction": 5,
		"count": 0,
		"publish": 0
	  }
	],
	"equipment": {
	  "count": 1,
	  "publish": 1
	}
  }
}