<svg xmlns="http://www.w3.org/2000/svg" viewBox="0 0 50 50">
<path fill="#ffffff" d="M17.7,25c0-4,3.3-7.3,7.3-7.3s7.3,3.3,7.3,7.3S29,32.3,25,32.3S17.7,29,17.7,25 M13.7,25c0,6.2,5.1,11.3,11.3,11.3S36.3,31.2,36.3,25S31.2,13.7,25,13.7S13.7,18.8,13.7,25 M34.1,13.3c0,1.5,1.2,2.6,2.6,2.6c1.5,0,2.6-1.2,2.6-2.6s-1.2-2.6-2.6-2.6h0C35.3,10.6,34.1,11.8,34.1,13.3 M16.1,42.9c-2.1-0.1-3.3-0.5-4.1-0.8c-1-0.4-1.8-0.9-2.5-1.6S8.3,39,7.9,38c-0.3-0.8-0.7-1.9-0.8-4.1C7,31.6,7,30.9,7,25s0-6.6,0.1-8.9C7.2,14,7.6,12.8,7.9,12c0.4-1,0.9-1.8,1.6-2.5S11,8.3,12,7.9c0.8-0.3,1.9-0.7,4.1-0.8C18.4,7,19.1,7,25,7s6.6,0,8.9,0.1C36,7.2,37.2,7.6,38,7.9c1,0.4,1.8,0.9,2.5,1.6s1.2,1.5,1.6,2.5c0.3,0.8,0.7,1.9,0.8,4.1c0.1,2.3,0.1,3,0.1,8.9s0,6.6-0.1,8.9c-0.1,2.1-0.5,3.3-0.8,4.1c-0.4,1-0.9,1.8-1.6,2.5c-0.8,0.8-1.5,1.2-2.5,1.6c-0.8,0.3-1.9,0.7-4.1,0.8C31.6,43,30.9,43,25,43S18.4,43,16.1,42.9 M15.9,3.2c-2.3,0.1-3.9,0.5-5.3,1C9.2,4.7,7.9,5.5,6.7,6.7s-2,2.4-2.5,3.9c-0.5,1.4-0.9,3-1,5.3C3,18.3,3,19,3,25s0,6.7,0.1,9.1c0.1,2.3,0.5,3.9,1,5.3c0.6,1.4,1.3,2.7,2.5,3.9s2.4,2,3.9,2.5c1.4,0.5,3,0.9,5.3,1C18.3,46.9,19,47,25,47s6.7,0,9.1-0.1c2.3-0.1,3.9-0.5,5.3-1c1.4-0.6,2.7-1.3,3.9-2.5s2-2.4,2.5-3.9c0.5-1.4,0.9-3,1-5.3C47,31.7,47,31,47,25s0-6.7-0.1-9.1c-0.1-2.3-0.5-3.9-1-5.3c-0.6-1.4-1.3-2.7-2.5-3.9c-1.2-1.2-2.4-2-3.9-2.5c-1.4-0.5-3-0.9-5.3-1C31.7,3.1,31,3,25,3S18.3,3,15.9,3.2"/>
<path fill="#ffffff" d="M17.7,25c0-4,3.3-7.3,7.3-7.3s7.3,3.3,7.3,7.3S29,32.3,25,32.3S17.7,29,17.7,25 M13.7,25c0,6.2,5.1,11.3,11.3,11.3S36.3,31.2,36.3,25S31.2,13.7,25,13.7S13.7,18.8,13.7,25 M34.1,13.3c0,1.5,1.2,2.6,2.6,2.6c1.5,0,2.6-1.2,2.6-2.6s-1.2-2.6-2.6-2.6h0C35.3,10.6,34.1,11.8,34.1,13.3 M16.1,42.9c-2.1-0.1-3.3-0.5-4.1-0.8c-1-0.4-1.8-0.9-2.5-1.6S8.3,39,7.9,38c-0.3-0.8-0.7-1.9-0.8-4.1C7,31.6,7,30.9,7,25s0-6.6,0.1-8.9C7.2,14,7.6,12.8,7.9,12c0.4-1,0.9-1.8,1.6-2.5S11,8.3,12,7.9c0.8-0.3,1.9-0.7,4.1-0.8C18.4,7,19.1,7,25,7s6.6,0,8.9,0.1C36,7.2,37.2,7.6,38,7.9c1,0.4,1.8,0.9,2.5,1.6s1.2,1.5,1.6,2.5c0.3,0.8,0.7,1.9,0.8,4.1c0.1,2.3,0.1,3,0.1,8.9s0,6.6-0.1,8.9c-0.1,2.1-0.5,3.3-0.8,4.1c-0.4,1-0.9,1.8-1.6,2.5c-0.8,0.8-1.5,1.2-2.5,1.6c-0.8,0.3-1.9,0.7-4.1,0.8C31.6,43,30.9,43,25,43S18.4,43,16.1,42.9 M15.9,3.2c-2.3,0.1-3.9,0.5-5.3,1C9.2,4.7,7.9,5.5,6.7,6.7s-2,2.4-2.5,3.9c-0.5,1.4-0.9,3-1,5.3C3,18.3,3,19,3,25s0,6.7,0.1,9.1c0.1,2.3,0.5,3.9,1,5.3c0.6,1.4,1.3,2.7,2.5,3.9s2.4,2,3.9,2.5c1.4,0.5,3,0.9,5.3,1C18.3,46.9,19,47,25,47s6.7,0,9.1-0.1c2.3-0.1,3.9-0.5,5.3-1c1.4-0.6,2.7-1.3,3.9-2.5s2-2.4,2.5-3.9c0.5-1.4,0.9-3,1-5.3C47,31.7,47,31,47,25s0-6.7-0.1-9.1c-0.1-2.3-0.5-3.9-1-5.3c-0.6-1.4-1.3-2.7-2.5-3.9c-1.2-1.2-2.4-2-3.9-2.5c-1.4-0.5-3-0.9-5.3-1C31.7,3.1,31,3,25,3S18.3,3,15.9,3.2"/>
</svg>
