<svg xmlns="http://www.w3.org/2000/svg" viewBox="0 0 50 50">
	<path d="M6.4,35.7l-2.2,9.6l0.6,0.6l9.7-2.2l0.8-0.9l-8-8.1L6.4,35.7z"/>
	<path d="M44.5,7.6l-2.2-2.2c-1.6-1.6-4.4-1.6-5.9,0l-2.9,2.9l7.9,8l3.1-2.9C46.2,11.8,46.2,9.1,44.5,7.6z"/>
	<path d="M10.2,31.8l7.9,8.2l21-21.2l-8-8.1L10.2,31.8z"/>
</svg>
